[
    {
        "source": {
            "doc": "data/neptun",
            "from": 176,
            "to": 186
        },
        "keys": [
            "tag:stb",
            "tag:wikipedia",
            "tag:sample",
            "event:akce-neptun",
            "datetime:1963"
        ],
        "timeline": "1963"
    },
    {
        "source": {
            "doc": "data/neptun",
            "from": 273,
            "to": 286
        },
        "keys": [
            "tag:stb",
            "tag:wikipedia",
            "tag:sample",
            "event:akce-neptun",
            "datetime:1964-06-20",
            "city:prague-cz",
            "place:sumava"
        ],
        "timeline": "1964-06-20"
    },
    {
        "source": {
            "doc": "data/neptun",
            "from": 334,
            "to": 348
        },
        "keys": [
            "tag:stb",
            "tag:wikipedia",
            "tag:sample",
            "event:akce-neptun",
            "datetime:1964-06-21T22:00:00"
        ],
        "timeline": "1964-06-21T22:00:00"
    },
    {
        "source": {
            "doc": "data/neptun",
            "from": 380,
            "to": 389
        },
        "keys": [
            "tag:stb",
            "tag:wikipedia",
            "tag:sample",
            "event:akce-neptun",
            "datetime:1964-07-03"
        ],
        "timeline": "1964-07-03"
    },
    {
        "source": {
            "doc": "data/neptun",
            "from": 443,
            "to": 466
        },
        "keys": [
            "tag:stb",
            "tag:wikipedia",
            "tag:sample",
            "event:akce-neptun",
            "datetime:1964-09-15",
            "person:lubomir-strougal"
        ],
        "timeline": "1964-09-15"
    },
    {
        "source": {
            "doc": "data/neptun",
            "from": 78,
            "to": 89
        },
        "keys": [
            "tag:stb",
            "tag:wikipedia",
            "tag:sample",
            "event:akce-neptun",
            "datetime:1965"
        ],
        "timeline": "1965"
    }
]
